D:\Study Material\sts-workspace\JMSProjectReceiver.zip_expanded\JMSProjectReceiver\src\test\java\com\transformxml\XSLTTranformationTest.java
D:\Study Material\sts-workspace\JMSProjectReceiver.zip_expanded\JMSProjectReceiver\src\test\java\com\java\HazelCast\HazelCastCheckValuesTest.java
D:\Study Material\sts-workspace\JMSProjectReceiver.zip_expanded\JMSProjectReceiver\src\test\java\com\send\jms\QueueSenderAfterHazelCastTest.java
D:\Study Material\sts-workspace\JMSProjectReceiver.zip_expanded\JMSProjectReceiver\src\test\java\com\consumer\controller\MessageRecieverApiTest.java
